--- Symbol List (sorted by symbol)
0.21stcentury            0001                  
0.__doloop               f4c6              (R )
0.condpart0              f4cb                  
0.condpart1              f4dd                  
0.condpart2              f4f0                  
0.condpart3              f4f6                  
0.condpart4              f504                  
0.condpart5              f50a                  
0.condpart6              f525                  
0.condpart7              f53b                  
0.continuelastP0         f165              (R )
0.continuelastP1         f139              (R )
0.continueP0             f0d6              (R )
0.continueP1             f0b2              (R )
0.endkerloop             f112              (R )
0.enterfromNBL           f113                  
0.kerloop                f08f                  
0.L00                    f45d                  
0.L01                    f45d                  
0.L010                   f45d                  
0.L011                   f469                  
0.L012                   f4a2                  
0.L013                   f4a2                  
0.L014                   f4aa                  
0.L015                   f4b2                  
0.L016                   f4b6                  
0.L017                   f4ba                  
0.L018                   f4be                  
0.L019                   f4c2                  
0.L02                    f45d                  
0.L020                   f4c6                  
0.L021                   f4d8                  
0.L022                   f4ea                  
0.L023                   f4fe                  
0.L024                   f512                  
0.L025                   f51f                  
0.L026                   f535                  
0.L027                   f54b                  
0.L028                   f54e                  
0.L03                    f45d                  
0.L04                    f45d                  
0.L05                    f45d                  
0.L06                    f45d                  
0.L07                    f45d                  
0.L08                    f45d                  
0.L09                    f45d                  
0.skip2then              f4fe              (R )
0.skip4then              f512              (R )
0.skipDrawlastP0         f172              (R )
0.skipDrawlastP1         f10c              (R )
0.skipDrawP0             f083              (R )
0.skipDrawP1             f089              (R )
0.skipL020               f4d8              (R )
0.skipL021               f4ea              (R )
0.skipL022               f4fe              (R )
0.skipL023               f512              (R )
0.skipL025               f535              (R )
0.skipL026               f54b              (R )
0.startkernel            f0a8              (R )
1.CYCLES                 0000              (R )
19.CYCLES                0000              (R )
2.CYCLES                 0002              (R )
3.CYCLES                 000a              (R )
4.CYCLES                 000a              (R )
5.CYCLES                 0002              (R )
6.CYCLES                 0004              (R )
7.CYCLES                 0000              (R )
8.CYCLES                 0006              (R )
_mx                      00d6              (R )
_px0                     0080              (R )
A                        00d4                  
a                        00d4              (R )
alarmclock               0002                  
altkernel                f0e4                  
AUDC0                    0015                  
AUDC1                    0016                  
AUDF0                    0017                  
AUDF1                    0018                  
AUDV0                    0019                  
AUDV1                    001a                  
aux1                     00f0                  
aux2                     00f1                  
aux3                     00f2                  
aux4                     00f3                  
aux5                     00f4                  
aux6                     00f5                  
B                        00d5                  
b                        00d5                  
backgroundchange         0000 ????         (R )
ballheight               0092              (R )
ballx                    0084                  
bally                    0089              (R )
bankswitch               0000 ????         (R )
bankswitch_hotspot       0000 ????         (R )
beginscore               f20b              (R )
c                        00d6              (R )
C                        00d6                  
clearmem                 f014              (R )
COLUBK                   0009              (R )
COLUP0                   0006              (R )
COLUP1                   0007              (R )
COLUPF                   0008              (R )
continuekernel           f08f              (R )
continuekernel2          f090                  
CTRLPF                   000a              (R )
currentpaddle            0090                  
CXBLPF                   0006                  
CXCLR                    002c              (R )
CXM0FB                   0004                  
CXM0P                    0000                  
CXM1FB                   0005                  
CXM1P                    0001                  
CXP0FB                   0002                  
CXP1FB                   0003                  
CXPPMM                   0007                  
D                        00d7                  
d                        00d7              (R )
debugcycles              0000 ????         (R )
debugscore               0000 ????         (R )
DivideLoop               f3e1              (R )
doneoverscan             f3c2                  
down2                    f38d              (R )
DPC_kernel_options       0000 ????         (R )
drawscreen               f3bd              (R )
e                        00d8                  
E                        00d8                  
ECHOFIRST                0001                  
ENABL                    001f              (R )
ENAM0                    001d              (R )
ENAM1                    001e              (R )
endkernel                f178              (R )
enterlastkernel          f127              (R )
f                        00d9                  
F                        00d9                  
font                     0000 ????         (R )
g                        00da                  
G                        00da                  
game                     f45d              (R )
goback                   f0a6              (R )
GRP0                     001b              (R )
GRP1                     001c              (R )
H                        00db                  
h                        00db                  
handwritten              0003                  
HMBL                     0024                  
HMCLR                    002b              (R )
HMM0                     0022                  
HMM1                     0023                  
HMOVE                    002a              (R )
HMP0                     0020              (R )
HMP1                     0021              (R )
HorPosLoop               f3de              (R )
I                        00dc                  
i                        00dc                  
initscore                f021              (R )
INPT0                    0008                  
INPT1                    0009                  
INPT2                    000a                  
INPT3                    000b                  
INPT4                    000c                  
INPT5                    000d                  
interlaced               0000 ????         (R )
interrupted              0004                  
INTIM                    0284              (R )
j                        00dd                  
J                        00dd                  
K                        00de                  
k                        00de                  
keepgoing                f284              (R )
keepgoingy               f2a0              (R )
kernel                   f034              (R )
kernelmacrodef           0000 ????         (R )
l                        00df                  
L                        00df                  
lastkernelline           f101              (R )
leftloop                 f2f7              (R )
legacy                   0000 ????         (R )
lifecolor                00f4                  
lifepointer              00f2                  
lives                    00f3                  
loop2                    f203              (R )
m                        00e0                  
M                        00e0                  
MachineIs2600            f011              (R )
mincycles                0000 ????         (R )
minikernel               0000 ????         (R )
missile0height           0090              (R )
missile0x                0082                  
missile0y                0091              (R )
missile1height           0087              (R )
missile1x                0083                  
missile1y                0088              (R )
multisprite              0000 ????         (R )
n                        00e1                  
N                        00e1                  
no_blank_lines           0000 ????         (R )
NO_ILLEGAL_OPCODES       0000 ????         (R )
noeor                    f3ba              (R )
noinc                    f28b              (R )
noscore                  0000 ????         (R )
noshiftdown              f3b2              (R )
noshiftdown2             f369              (R )
notleft                  f308              (R )
notright                 f31e              (R )
notup                    f36a              (R )
NUSIZ0                   0004              (R )
NUSIZ1                   0005              (R )
O                        00e2                  
o                        00e2                  
objecty                  0085                  
onedecup                 f326              (R )
oneincup                 f36f              (R )
overscan                 f3bd                  
overscan_time            0000 ????         (R )
overscanloop             f3bd              (R )
P                        00e3                  
p                        00e3                  
paddle                   0091                  
PF0                      000d              (R )
PF1                      000e              (R )
PF1L                     000e              (R )
PF1R                     000e              (R )
PF2                      000f              (R )
PF2L                     000f              (R )
PF2R                     000f              (R )
PF_data0                 f46e              (R )
pfadjust                 0000              (R )
pfcenter                 0000 ????         (R )
pfclear                  f251                  
pfclear_loop             f253              (R )
PFcolorandheight         0000 ????         (R )
PFcolors                 0000 ????         (R )
pfcolortable             00f0                  
pfhalfwidth              0000 ????         (R )
PFheights                0000 ????         (R )
pfheighttable            00f0                  
pfhline                  f27e                  
pflabel0                 f49a              (R )
PFmaskvalue              0000 ????         (R )
pfpixel                  f278                  
pfread                   f26b                  
pfres                    0000 ????         (R )
pfrowheight              0000 ????         (R )
pfscore                  0000 ????         (R )
pfscore1                 00f2                  
pfscore2                 00f3                  
pfscorecolor             00f4                  
pfscroll                 f2f3                  
pfvline                  f293                  
pfwidth                  0004              (R )
pixeloff                 f2c7              (R )
pixelon                  f2bd              (R )
player0color             0090                  
player0colorstore        0082                  
player0height            008e              (R )
player0pointer           008a              (R )
player0pointerhi         008b              (R )
player0pointerlo         008a              (R )
player0x                 0080              (R )
player0y                 0085              (R )
player1color             0087                  
player1colors            0000 ????         (R )
player1height            008f              (R )
player1pointer           008c              (R )
player1pointerhi         008d                  
player1pointerlo         008c                  
player1x                 0081                  
player1y                 0086              (R )
playercolors             0000 ????         (R )
playerL010_0             f551              (R )
playfield                00a4              (R )
playfieldbase            00a4              (R )
playfieldpos             00ef              (R )
plotpoint                f2ac              (R )
Q                        00e4                  
q                        00e4                  
r                        00e5                  
R                        00e5                  
rand                     00a2              (R )
rand16                   0000 ????         (R )
randomize                f3b3                  
readpaddle               0000 ????         (R )
REFP0                    000b              (R )
REFP1                    000c              (R )
repostable               f44e              (R )
RESBL                    0014                  
RESM0                    0012                  
RESM1                    0013                  
RESMP0                   0028                  
RESMP1                   0029                  
RESP0                    0010              (R )
RESP1                    0011              (R )
retroputer               0005                  
rightloop                f30d              (R )
ROM2k                    0000 ????         (R )
RSYNC                    0003                  
s                        00e6                  
S                        00e6                  
score                    0093              (R )
scorecolor               00a3              (R )
scorefade                0000 ????         (R )
scorepointers            0096              (R )
scorepointerset          f44e              (R )
scoretable               ff9c              (R )
setbyte                  f2d3              (R )
setuppointers            f259              (R )
shakescreen              0000 ????         (R )
shiftdown                f32c              (R )
stack1                   00f6              (R )
stack2                   00f7              (R )
stack3                   00f8                  
stack4                   00f9                  
start                    f000              (R )
statusbarlength          00f5                  
superchip                0000 ????         (R )
SWACNT                   0281                  
SWBCNT                   0283                  
SWCHA                    0280              (R )
SWCHB                    0282                  
t                        00e7                  
T                        00e7                  
T1024T                   0297                  
temp1                    009c              (R )
temp2                    009d              (R )
temp3                    009e              (R )
temp4                    009f              (R )
temp5                    00a0              (R )
temp6                    00a1              (R )
temp7                    00ee                  
TIA_BASE_ADDRESS         0000              (R )
TIA_BASE_READ_ADDRESS    0000              (R )
TIA_BASE_WRITE_ADDRESS   0000              (R )
TIM1T                    0294                  
TIM64T                   0296              (R )
TIM8T                    0295                  
TIMINT                   0285                  
tiny                     0007                  
u                        00e8                  
U                        00e8                  
up2                      f342              (R )
v                        00e9                  
V                        00e9                  
var0                     00a4                  
var1                     00a5                  
var10                    00ae                  
var11                    00af                  
var12                    00b0                  
var13                    00b1                  
var14                    00b2                  
var15                    00b3                  
var16                    00b4                  
var17                    00b5                  
var18                    00b6                  
var19                    00b7                  
var2                     00a6                  
var20                    00b8                  
var21                    00b9                  
var22                    00ba                  
var23                    00bb                  
var24                    00bc                  
var25                    00bd                  
var26                    00be                  
var27                    00bf                  
var28                    00c0                  
var29                    00c1                  
var3                     00a7                  
var30                    00c2                  
var31                    00c3                  
var32                    00c4                  
var33                    00c5                  
var34                    00c6                  
var35                    00c7                  
var36                    00c8                  
var37                    00c9                  
var38                    00ca                  
var39                    00cb                  
var4                     00a8                  
var40                    00cc                  
var41                    00cd                  
var42                    00ce                  
var43                    00cf                  
var44                    00d0                  
var45                    00d1                  
var46                    00d2                  
var47                    00d3                  
var5                     00a9                  
var6                     00aa                  
var7                     00ab                  
var8                     00ac                  
var9                     00ad                  
VBLANK                   0001              (R )
vblank_bB_code           0000 ????         (R )
vblank_time              0000 ????         (R )
vblk                     f436                  
vblk2                    f436              (R )
VDELBL                   0027              (R )
VDELP0                   0025              (R )
VDELP1                   0026              (R )
VERSION_MACRO            0069                  
VERSION_VCS              0069                  
vertical_reflect         0000 ????         (R )
VSYNC                    0000              (R )
w                        00ea                  
W                        00ea                  
whimsey                  0006                  
WSYNC                    0002              (R )
x                        00eb                  
X                        00eb                  
y                        00ec                  
Y                        00ec                  
z                        00ed                  
Z                        00ed                  
--- End of Symbol List.
