--- Symbol List (sorted by symbol)
0.21stcentury            0001                  
0.__Game_Over_Setup      f76d              (R )
0.__New_High_Score       f7a6              (R )
0.__Skip_Flip            f84d              (R )
0.__Skip_High_Score      f7b2              (R )
0.buildings1             f590                  
0.button                 f8a4              (R )
0.cloud1                 f584                  
0.condpart0              f5fb                  
0.condpart1              f604              (R )
0.condpart10             f6bc                  
0.condpart11             f6df                  
0.condpart12             f6f8                  
0.condpart13             f70a                  
0.condpart14             f72d                  
0.condpart15             f759                  
0.condpart16             f773                  
0.condpart17             f77c                  
0.condpart18             f785                  
0.condpart19             f78e                  
0.condpart2              f625                  
0.condpart20             f797                  
0.condpart21             f7a0                  
0.condpart22             f82a                  
0.condpart23             f85a                  
0.condpart24             f895                  
0.condpart25             f89f                  
0.condpart26             f8a8                  
0.condpart27             f8d5                  
0.condpart3              f62a                  
0.condpart4              f632                  
0.condpart5              f640                  
0.condpart6              f67f                  
0.condpart7              f688              (R )
0.condpart8              f6af                  
0.condpart9              f6b7                  
0.Doh                    f990              (R )
0.ds                     f877              (R )
0.Fla                    f7c6                  
0.Game_Over              f7de              (R )
0.gamebegin              f5ab              (R )
0.gravchk                f87b              (R )
0.L00                    f552                  
0.L01                    f552                  
0.L010                   f552                  
0.L0100                  f742                  
0.L0101                  f744                  
0.L0102                  f747                  
0.L0103                  f74d                  
0.L0104                  f753                  
0.L0105                  f753                  
0.L0106                  f76c                  
0.L0107                  f76d                  
0.L0108                  f76d                  
0.L0109                  f76d                  
0.L011                   f552                  
0.L0110                  f776                  
0.L0111                  f77f                  
0.L0112                  f77f                  
0.L0113                  f77f                  
0.L0114                  f77f                  
0.L0115                  f788                  
0.L0116                  f791                  
0.L0117                  f791                  
0.L0118                  f791                  
0.L0119                  f791                  
0.L012                   f552                  
0.L0120                  f79a                  
0.L0121                  f7a3                  
0.L0122                  f7a3                  
0.L0123                  f7a3                  
0.L0124                  f7a3                  
0.L0125                  f7a6                  
0.L0126                  f7a6                  
0.L0127                  f7a6                  
0.L0128                  f7a6                  
0.L0129                  f7b2                  
0.L013                   f552                  
0.L0130                  f7b2                  
0.L0131                  f7b2                  
0.L0132                  f7b2                  
0.L0133                  f7b2                  
0.L0134                  f7ba                  
0.L0135                  f7c6                  
0.L0136                  f7d2                  
0.L0137                  f7de                  
0.L0138                  f7de                  
0.L0139                  f7de                  
0.L014                   f552                  
0.L0140                  f7de                  
0.L0141                  f7de                  
0.L0142                  f7e4                  
0.L0143                  f7ec                  
0.L0144                  f7f6                  
0.L0145                  f800                  
0.L0146                  f808                  
0.L0147                  f80a                  
0.L0148                  f80a                  
0.L0149                  f80a                  
0.L015                   f552                  
0.L0150                  f80a                  
0.L0151                  f810                  
0.L0152                  f810                  
0.L0153                  f810                  
0.L0154                  f810                  
0.L0155                  f824                  
0.L0156                  f824                  
0.L0157                  f824                  
0.L0158                  f824                  
0.L0159                  f83d                  
0.L016                   f552                  
0.L0160                  f83d                  
0.L0161                  f83d                  
0.L0162                  f83d                  
0.L0163                  f84d                  
0.L0164                  f850                  
0.L0165                  f856                  
0.L0166                  f871                  
0.L0167                  f874                  
0.L0168                  f877                  
0.L0169                  f877                  
0.L017                   f552                  
0.L0170                  f87a                  
0.L0171                  f87b                  
0.L0172                  f888                  
0.L0173                  f88f                  
0.L0174                  f899                  
0.L0175                  f8a3                  
0.L0176                  f8a4                  
0.L0177                  f8c7                  
0.L0178                  f8d0                  
0.L0179                  f8d1                  
0.L018                   f552                  
0.L0180                  f8e5                  
0.L0181                  f8e6                  
0.L0182                  f8e6                  
0.L0183                  f8e6                  
0.L0184                  f906                  
0.L0185                  f990                  
0.L0186                  f996                  
0.L0187                  f996                  
0.L019                   f552                  
0.L02                    f552                  
0.L020                   f552                  
0.L021                   f552                  
0.L022                   f552                  
0.L023                   f552                  
0.L024                   f552                  
0.L025                   f552                  
0.L026                   f558                  
0.L027                   f55c                  
0.L028                   f560                  
0.L029                   f568                  
0.L03                    f552                  
0.L030                   f56c                  
0.L031                   f570                  
0.L032                   f580                  
0.L033                   f584                  
0.L034                   f590                  
0.L035                   f59c                  
0.L036                   f5a0                  
0.L037                   f5a4                  
0.L038                   f5a8                  
0.L039                   f5ab                  
0.L04                    f552                  
0.L040                   f5b1                  
0.L041                   f5bb                  
0.L042                   f5bf                  
0.L043                   f5c3                  
0.L044                   f5c7                  
0.L045                   f5cb                  
0.L046                   f5cf                  
0.L047                   f5d3                  
0.L048                   f5d7                  
0.L049                   f5db                  
0.L05                    f552                  
0.L050                   f5e7                  
0.L051                   f5ee                  
0.L052                   f5f5                  
0.L053                   f61f                  
0.L054                   f61f                  
0.L055                   f61f                  
0.L056                   f61f                  
0.L057                   f62c                  
0.L058                   f636                  
0.L059                   f63a                  
0.L06                    f552                  
0.L060                   f642                  
0.L061                   f646                  
0.L062                   f64a                  
0.L063                   f64e                  
0.L064                   f654                  
0.L065                   f657                  
0.L066                   f65a                  
0.L067                   f65a                  
0.L068                   f65d                  
0.L069                   f660                  
0.L07                    f552                  
0.L070                   f667                  
0.L071                   f66c                  
0.L072                   f673                  
0.L073                   f679                  
0.L074                   f6a3                  
0.L075                   f6b1                  
0.L076                   f6be                  
0.L077                   f6c2                  
0.L078                   f6c6                  
0.L079                   f6ca                  
0.L08                    f552                  
0.L080                   f6d0                  
0.L081                   f6d3                  
0.L082                   f6d6                  
0.L083                   f6d9                  
0.L084                   f6e3                  
0.L085                   f6ea                  
0.L086                   f6ea                  
0.L087                   f6ea                  
0.L088                   f6ed                  
0.L089                   f6f4                  
0.L09                    f552                  
0.L090                   f6fe                  
0.L091                   f6fe                  
0.L092                   f704                  
0.L093                   f711                  
0.L094                   f718                  
0.L095                   f71f                  
0.L096                   f721                  
0.L097                   f727                  
0.L098                   f734                  
0.L099                   f73b                  
0.loop                   f5e7              (R )
0.nobutton               f8d1              (R )
0.nojoy                  f657              (R )
0.nojoy2                 f6d3              (R )
0.nojoy3                 f871              (R )
0.noread                 f61f              (R )
0.noread2                f6b1              (R )
0.playsound1             f6fe                  
0.playsound2             f721              (R )
0.playsoundfx            f6fe                  
0.playsoundfxdone        f744              (R )
0.ppy                    f7d2                  
0.setsound               f747              (R )
0.skip0OR                f61f              (R )
0.skip2OR                f6a3              (R )
0.skip2then              f62c              (R )
0.skip9then              f6be              (R )
0.skipelse0              f76c              (R )
0.skipL0105              f764              (R )
0.skipL0109              f776              (R )
0.skipL0110              f77f              (R )
0.skipL0114              f788              (R )
0.skipL0115              f791              (R )
0.skipL0119              f79a              (R )
0.skipL0120              f7a3              (R )
0.skipL0158              f83d              (R )
0.skipL0165              f871              (R )
0.skipL0173              f899              (R )
0.skipL0174              f8a3              (R )
0.skipL0176              f8c7              (R )
0.skipL0179              f8e5              (R )
0.skipL0184              f990              (R )
0.skipL052               f5fe              (R )
0.skipL056               f62c              (R )
0.skipL057               f636              (R )
0.skipL059               f642              (R )
0.skipL073               f682              (R )
0.skipL074               f6b1              (R )
0.skipL075               f6be              (R )
0.skipL083               f6e3              (R )
0.skipL089               f6fe              (R )
0.skipL092               f711              (R )
0.skipL097               f734              (R )
0.startrestart           f558              (R )
0.Title                  f76d                  
1.CYCLES                 0004              (R )
10.CYCLES                0004              (R )
11.CYCLES                0004              (R )
12.CYCLES                0006              (R )
13.CYCLES                0004              (R )
14.CYCLES                0006              (R )
15.CYCLES                0006              (R )
16.CYCLES                0004              (R )
17.CYCLES                0000              (R )
18.CYCLES                0006              (R )
2.CYCLES                 0004              (R )
3.CYCLES                 0002              (R )
4.CYCLES                 0000              (R )
5.CYCLES                 0004              (R )
6.CYCLES                 0004              (R )
7.CYCLES                 0006              (R )
8.CYCLES                 0004              (R )
9.CYCLES                 0000              (R )
_Bit2_Swap_Scores        00e2              (R )
_COLUP1                  0098                  
_High_Score01            00dc              (R )
_High_Score02            00dd              (R )
_High_Score03            00de              (R )
_NUSIZ1                  0093                  
_Temp_Score01            00df              (R )
_Temp_Score02            00e0              (R )
_Temp_Score03            00e1              (R )
a                        00d7                  
A                        00d7                  
AdjustYValuesDownLoop    f455              (R )
AdjustYValuesUpLoop      f0db              (R )
alarmclock               0002                  
asdhj                    f220              (R )
aSwitchDrawP0K1          f2b5              (R )
AUDC0                    0015              (R )
AUDC1                    0016              (R )
AUDF0                    0017              (R )
AUDF1                    0018              (R )
AUDV0                    0019              (R )
AUDV1                    001a              (R )
aux3                     00bf                  
aux4                     00c0                  
aux5                     00c1                  
aux6                     00c2                  
aWaitDrawP0K1            f2bc              (R )
B                        00d8                  
b                        00d8              (R )
BackFrom1                f291              (R )
backfrombgcolor          f242              (R )
BackFromRepoKernel       f29f              (R )
BackFromSkipDrawP1       f247              (R )
BackFromSwitchDrawP0K1   f23e              (R )
BackFromSwitchDrawP0KR   f2fb              (R )
BackFromSwitchDrawP0KV   f33f              (R )
ballx                    0082              (R )
bally                    008c              (R )
bankswitch               0000 ????         (R )
bankswitch_hotspot       0000 ????         (R )
beginscore               f410              (R )
blank_pf                 f017              (R )
BottomOfKernelLoop       f3ae                  
C                        00d9                  
c                        00d9              (R )
checktoohigh             f4c8              (R )
cityX                    00f0              (R )
clearmem                 f529              (R )
COLUBK                   0009              (R )
COLUP0                   0006              (R )
COLUP1                   0007              (R )
COLUP2                   0099              (R )
COLUP3                   009a              (R )
COLUP4                   009b              (R )
COLUP5                   009c              (R )
COLUPF                   0008              (R )
copytable                f466              (R )
countdown                f4c4              (R )
CTRLPF                   000a              (R )
CXBLPF                   0006                  
CXCLR                    002c              (R )
CXM0FB                   0004                  
CXM0P                    0000                  
CXM1FB                   0005                  
CXM1P                    0001              (R )
CXP0FB                   0002                  
CXP1FB                   0003                  
CXPPMM                   0007                  
cycle74_HMCLR            f085              (R )
cyclebalance             f260              (R )
D                        00da                  
d                        00da              (R )
debugscore               0000 ????         (R )
DelayTableHi             00ea                  
DelayTableLo             00e9                  
DivideBy15Loop           f0ad              (R )
DivideBy15LoopK          f30e              (R )
DoneWithKernel           f3ae              (R )
donewkernel              f2a8              (R )
DPC_kernel_options       0000 ????         (R )
drawscreen               f043              (R )
e                        00db              (R )
E                        00db                  
ECHOFIRST                0001                  
ENABL                    001f              (R )
ENAM0                    001d              (R )
ENAM1                    001e              (R )
f                        00dc              (R )
F                        00dc                  
FineAdjustTableBegin     f000              (R )
FineAdjustTableEnd       ef0f              (R )
flag                     00ef              (R )
font                     0000 ????         (R )
fsstart                  f464                  
g                        00dd              (R )
G                        00dd                  
game                     f552              (R )
goback                   f334              (R )
gravity                  00d9              (R )
GRP0                     001b              (R )
GRP1                     001c              (R )
H                        00de                  
h                        00de              (R )
handwritten              0003                  
HMBL                     0024                  
HMCLR                    002b              (R )
HMM0                     0022                  
HMM1                     0023                  
HMOVE                    002a              (R )
HMP0                     0020              (R )
HMP1                     0021              (R )
i                        00df              (R )
I                        00df                  
initscore                f532              (R )
INPT0                    0008                  
INPT1                    0009                  
INPT2                    000a                  
INPT3                    000b                  
INPT4                    000c              (R )
INPT5                    000d                  
interrupted              0004                  
INTIM                    0284              (R )
J                        00e0                  
j                        00e0              (R )
k                        00e1              (R )
K                        00e1                  
Kernel_entry             f287              (R )
KernelCleanupSubroutine  f453                  
KernelLoopa              f22f              (R )
KernelLoopb              f233              (R )
KernelLoopx              f2c4              (R )
KernelRoutine            f213              (R )
KernelSetupSubroutine    f0d9              (R )
L                        00e2                  
l                        00e2              (R )
largerXislower           f498              (R )
lastkernelline           f2cb              (R )
lifecolor                00c0                  
lifepointer              00c1                  
lives                    00c2                  
loop2                    f406              (R )
M                        00e3                  
m                        00e3                  
MachineIs2600            f526              (R )
MaskTable                f108                  
mincycles                0000 ????         (R )
minikernel               0000 ????         (R )
missile0x                0080              (R )
missile0y                008a              (R )
missile1x                0081              (R )
missile1y                008b              (R )
msk_bgcolor              f909              (R )
msk_bgcolor_length       0087                  
multisprite              0001              (R )
multisprite_setup        f028              (R )
N                        00e4                  
n                        00e4                  
NewCOLUP1                0098              (R )
NewNUSIZ                 0093              (R )
newrepo                  f275                  
NewSpriteX               0085              (R )
NewSpriteY               008e              (R )
NO_ILLEGAL_OPCODES       0000 ????         (R )
nodec                    f396              (R )
noeor                    f54f              (R )
nonetoohigh              f4d7              (R )
noscore                  0000 ????         (R )
notoverlapping           f4b0              (R )
nottoohigh               f107              (R )
noUpdateXKR              f2df              (R )
NUSIZ0                   0004              (R )
NUSIZ1                   0005              (R )
NUSIZ2                   0094              (R )
NUSIZ3                   0095                  
NUSIZ4                   0096              (R )
NUSIZ5                   0097                  
o                        00e5              (R )
O                        00e5                  
objecty                  008a                  
overlapping              f48d                  
overscan_time            0000 ????         (R )
OverscanRoutine          f44d                  
P                        00e6                  
p                        00e6              (R )
P0Bottom                 00a4              (R )
P0Top                    00cf              (R )
P1Bottom                 00a5              (R )
P1display                00cc              (R )
PF0                      000d              (R )
PF1                      000e              (R )
PF1_data0                fb00              (R )
PF1pointer               00bb              (R )
PF1temp1                 00b6              (R )
PF1temp2                 00b7              (R )
PF2                      000f              (R )
PF2_data0                fb50              (R )
PF2pointer               00bd              (R )
PF2temp1                 00b8              (R )
PF2temp2                 00b9              (R )
pfheight                 00c4              (R )
pfpixelheight            00ba              (R )
pfres                    0000 ????         (R )
pfrowheight              0000 ????         (R )
pfscore                  0000 ????         (R )
pfscore1                 00c1                  
pfscore2                 00c2                  
pfscorecolor             00c0                  
PFStart                  f00f              (R )
pfsub                    f01f              (R )
player0height            00b0              (R )
player0pointer           00a2              (R )
player0pointerhi         00a3              (R )
player0pointerlo         00a2              (R )
player0x                 0084              (R )
player0y                 008d              (R )
player1height            00b1                  
player1pointerhi         00ab              (R )
player1pointerlo         00a6              (R )
player1x                 0085                  
player1y                 008e                  
player26then_3           fae6              (R )
player27then_3           faee              (R )
player2height            00b2              (R )
player2pointerhi         00ac              (R )
player2pointerlo         00a7              (R )
player2x                 0086              (R )
player2y                 008f              (R )
player3height            00b3              (R )
player3pointerhi         00ad              (R )
player3pointerlo         00a8              (R )
player3x                 0087              (R )
player3y                 0090              (R )
player4height            00b4              (R )
player4pointerhi         00ae              (R )
player4pointerlo         00a9              (R )
player4x                 0088              (R )
player4y                 0091              (R )
player5height            00b5              (R )
player5pointerhi         00af              (R )
player5pointerlo         00aa              (R )
player5x                 0089              (R )
player5y                 0092              (R )
playerL0135_0            fad5              (R )
playerL0136_5            fade              (R )
playerL033_2             f997              (R )
playerL034_4             f99a              (R )
playerL049_0             fa5a              (R )
playfield                00bb                  
playfieldpos             00c3                  
PositionASpriteSubroutine f0a7              (R )
PrePositionAllObjects    f0be              (R )
q                        00e7              (R )
Q                        00e7                  
r                        00e8              (R )
R                        00e8                  
rand                     00d6              (R )
rand1                    00da                  
rand16                   0000 ????         (R )
randomize                f548              (R )
REFP0                    000b              (R )
REFP1                    000c              (R )
RepoKernel               f2e6              (R )
RepoLine                 00ce              (R )
RESBL                    0014                  
RESM0                    0012                  
RESM1                    0013                  
RESMP0                   0028                  
RESMP1                   0029                  
RESP0                    0010              (R )
RESP1                    0011              (R )
retroputer               0005                  
retXKR                   f2f1              (R )
ROM2k                    0000 ????         (R )
RSYNC                    0003                  
s                        00e9              (R )
S                        00e9                  
sc1                      00d2              (R )
sc2                      00d3              (R )
sc3                      00d4              (R )
score                    00d2              (R )
scorecolor               00d5              (R )
scorepointers            00c5              (R )
scorepointerset          f505              (R )
scoretable               ff9c              (R )
screenheight             0058              (R )
SetCopyHeight            f02e              (R )
SetLastLine              f387              (R )
SetNextLine              f384              (R )
setscorepointers         f4e9              (R )
SetupP1Subroutine        f464              (R )
sfxdata_f                f8e6              (R )
sfxdata_v                f8f6              (R )
shiftdone                f4e6              (R )
shiftnumbers             f4d8              (R )
sixdigscore              f10d              (R )
sKernelLoopb             f2c1              (R )
SkipDrawbgcolor          f2ab              (R )
SkipDrawP1K1             f20c              (R )
skipscore                f44d                  
skipswapGfxtable         f4ba              (R )
skipthis                 f39d              (R )
sortloop                 f474              (R )
soundindex1              00e5              (R )
soundindex2              00e6              (R )
SoundPtrHi               00e7                  
SoundPtrLo               00e6                  
SpriteGfxIndex           009d              (R )
spriteheight             00b1              (R )
SpriteIndex              0083              (R )
spritesort               00f1              (R )
spritesort2              00f2                  
spritesort3              00f3                  
spritesort4              00f4                  
spritesort5              00f5                  
stack1                   00f6              (R )
stack2                   00f7                  
stack3                   00f8                  
stack4                   00f9                  
start                    f515              (R )
statusbarlength          00bf                  
superchip                0000 ????         (R )
SWACNT                   0281                  
swaploop                 f4da              (R )
SWBCNT                   0283                  
SWCHA                    0280                  
SWCHB                    0282                  
SwitchDrawP0K1           f200              (R )
SwitchDrawP0KR           f2d3              (R )
SwitchDrawP0KV           f3a2              (R )
T                        00ea                  
t                        00ea              (R )
T1024T                   0297                  
temp1                    00cb              (R )
temp2                    00cc              (R )
temp3                    00cd              (R )
temp4                    00ce              (R )
temp5                    00cf              (R )
temp6                    00d0              (R )
temp7                    00d1                  
TIA_BASE_ADDRESS         0000              (R )
TIA_BASE_READ_ADDRESS    0000              (R )
TIA_BASE_WRITE_ADDRESS   0000              (R )
TIM1T                    0294                  
TIM64T                   0296              (R )
TIM8T                    0295                  
TIMINT                   0285                  
tiny                     0007                  
u                        00eb                  
U                        00eb                  
V                        00ec                  
v                        00ec              (R )
VBLANK                   0001              (R )
vblank_bB_code           0000 ????         (R )
vblank_time              0000 ????         (R )
VDELBL                   0027              (R )
VDELP0                   0025              (R )
VDELP1                   0026              (R )
VERSION_MACRO            0069                  
VERSION_VCS              0069                  
VSYNC                    0000              (R )
w                        00ed                  
W                        00ed                  
WaitDrawP0K1             f207              (R )
WaitDrawP0KR             f2da              (R )
WaitDrawP0KV             f3a9              (R )
WaitForOverscanEnd       f043              (R )
WaitForVblankEnd         f097              (R )
wastetime                f504                  
whimsey                  0006                  
WSYNC                    0002              (R )
x                        00ee                  
X                        00ee                  
y                        00ef              (R )
Y                        00ef                  
Z                        00f0                  
z                        00f0              (R )
--- End of Symbol List.
